溪山玥&央视,#genre#
CCTV-1,http://[2409:8087:4c0a:22:1::11]:6410/170000001115/UmaiCHAN111128BESTVSMGSMG/index.m3u8?AuthInfo=9kOOdBn7MFF%2F2bWjKgahUU6FFmRK8Hl0ytyd5e5kWGEwoDIwMxbrlyyVy9x6ZDKnldIYKOjBOUjRyoym5n7Kg0yIYstFTUfqtC14fzxhy5Y
CCTV-1,http://[2409:8087:1a01:df::7005]:80/ottrrs.hl.chinamobile.com/PLTV/88888888/224/3221226559/index.m3u8
CCTV-1,http://[2409:8087:5e01:34::20]:6610/ZTE_CMS/00000001000000060000000000000131/index.m3u8?IAS
CCTV-1,http://[2409:8087:5e00:24::1e]:6060/200000001898/460000089800010144/index.m3u8
CCTV-2,http://[2409:8087:4c0a:22:1::11]:6410/170000001115/UmaiCHAN5000036BESTVSMGSMG/index.m3u8?AuthInfo=9kOOdBn7MFF%2F2bWjKgahUSpr1AVNI633ampcuzdN%2BfGVSARKsxkWGZw7vFUuOj2QZHeRzosIxVbl7i2QHFATHA3k5wDWG1qHkZQAleNv%2FbI
CCTV-2,http://[2409:8087:5e01:34::22]:6610/ZTE_CMS/00000001000000060000000000000372/index.m3u8?IAS
CCTV-2,http://[2409:8087:1a01:df::7005]:80/ottrrs.hl.chinamobile.com/PLTV/88888888/224/3221226540/index.m3u8
CCTV-2,http://[2409:8087:1a01:df::7005]/ottrrs.hl.chinamobile.com/PLTV/88888888/224/3221226540/index.m3u8
CCTV-2,http://[2409:8087:5e00:24::1e]:6060/200000001898/460000089800010211/1.m3u8
CCTV-2,http://liveop.cctv.cn:80/hls/CCTV28bee868714f04ea2af79947bb9b46fc3H/playlist.m3u8
CCTV-2,http://[2409:8087:5e01:34::38]:6610/ZTE_CMS/00000001000000060000000000000372/index.m3u8?
CCTV-2,http://liveop.cctv.cn/hls/CCTV28bee868714f04ea2af79947bb9b46fc3H/playlist.m3u8
CCTV-2,http://[2409:8087:5e01:34::20]:6610/ZTE_CMS/00000001000000060000000000000372/index.m3u8?IAS
CCTV-2,http://ottrrs.hl.chinamobile.com/TVOD/88888888/224/3221226540/index.m3u8
CCTV-3,http://[2409:8087:4c0a:22:1::11]:6410/170000001115/UmaiCHAN638727c125355/index.m3u8?AuthInfo=9kOOdBn7MFF%2F2bWjKgahUSPTZ4CK5oLfjaEYe9dogNMUNNEYLCPUtKY62j1Wp5u04wipypKUQ1TTuR2lXvBl5YpHqBJmlA19x22TD9bUOjk
CCTV-3,http://[2409:8087:5e00:24::1e]:6060/200000001898/460000089800010212/1.m3u8
CCTV-3,http://[2409:8087:5e00:24::1e]:6060/200000001898/460000089800010212/index.m3u8
CCTV-3,http://[2409:8087:5e01:34::20]:6610/ZTE_CMS/00000001000000060000000000000382/index.m3u8?IAS
CCTV-4,http://[2409:8087:4c0a:22:1::11]:6410/170000001115/UmaiCHAN5000037BESTVSMGSMG/index.m3u8?AuthInfo=9kOOdBn7MFF%2F2bWjKgahUSpr1AVNI633ampcuzdN%2BfH0ZQXwaiVktPr6ILPKXqwOUC2ZXft7ZULN6h9qLQPFOTSlVTfophiKaMb8h1kPV74
CCTV-4,http://[2409:8087:5e01:34::23]:6610/ZTE_CMS/00000001000000060000000000000485/index.m3u8?IAS
CCTV-4,http://ottrrs.hl.chinamobile.com/PLTV/88888888/224/3221226428/index.m3u8
CCTV-4,http://[2409:8087:1a01:df::7005]:80/ottrrs.hl.chinamobile.com/PLTV/88888888/224/3221226428/index.m3u8
CCTV-4,http://[2409:8087:5e00:24::1e]:6060/200000001898/460000089800010017/1.m3u8
CCTV-4,http://[2409:8087:1a01:df::7005]/ottrrs.hl.chinamobile.com/PLTV/88888888/224/3221226428/index.m3u8
CCTV-4,http://[2409:8087:5e00:24::1e]:6060/200000001898/460000089800010017/index.m3u8
CCTV-4,http://[2409:8087:5e01:34::38]:6610/ZTE_CMS/00000001000000060000000000000485/index.m3u8?
CCTV-4,http://[2409:8087:5e01:34::20]:6610/ZTE_CMS/00000001000000060000000000000485/index.m3u8?IAS
CCTV-5,http://[2409:8087:4c0a:22:1::11]:6410/170000001115/UmaiCHAN638727e617ca0/index.m3u8?AuthInfo=9kOOdBn7MFF%2F2bWjKgahUSPTZ4CK5oLfjaEYe9dogNMSXw4ajlL%2FoUYC2RZQQDco6uQSifXBocz5ID6RePfIKQ4rFWiHjq%2FeZoDmrzW%2FKlw
CCTV-5,http://[2409:8087:5e00:24::1e]:6060/200000001898/460000089800010139/1.m3u8
CCTV-5,http://[2409:8087:5e00:24::1e]:6060/200000001898/460000089800010139/index.m3u8
CCTV-5,http://[2409:8087:5e01:34::38]:6610/ZTE_CMS/00000001000000060000000000000132/index.m3u8?
CCTV-5,http://[2409:8087:5e01:34::20]:6610/ZTE_CMS/00000001000000060000000000000376/index.m3u8?IAS
CCTV-5,http://[2409:8087:5e01:34::20]:6610/ZTE_CMS/00000001000000060000000000000461/index.m3u8?IAS
CCTV-5,http://[2409:8087:5e01:34::19]:6610/ZTE_CMS/00000001000000060000000000000376/index.m3u8?IAS
CCTV-5+,http://[2409:8087:4c0a:22:1::11]:6410/170000001115/UmaiCHAN63872908d48f9/index.m3u8?AuthInfo=9kOOdBn7MFF%2F2bWjKgahUSBx06ZL9Bo6JOM%2BSTjxZRK254G1jtietGzDaHvFNRtjXOvFnbf%2BTao33JqYlfMYYn2z3agOn9gvNMT9KmBaR9o
CCTV-5+,http://[2409:8087:5e01:34::22]:6610/ZTE_CMS/00000001000000060000000000000132/index.m3u8?IAS
CCTV-5+,http://[2409:8087:5e00:24::1e]:6060/200000001898/460000089800010202/1.m3u8
CCTV-5+,http://[2409:8087:5e00:24::1e]:6060/200000001898/460000089800010202/index.m3u8
CCTV-5+,http://[2409:8087:5e01:34::20]:6610/ZTE_CMS/00000001000000060000000000000132/index.m3u8?IAS
CCTV-6,http://[2409:8087:4c0a:22:1::11]:6410/170000001115/UmaiCHAN638728804b1f9/index.m3u8?AuthInfo=9kOOdBn7MFF%2F2bWjKgahUdDh4EPdDnvGlSBkYaxFdazJhFQmuq4XUiks9ZrIlJN%2BknLs8H%2BSxcDXy%2BTesEc8Q0KCN89MjYoj85Sol1kbKI4
CCTV-6,http://[2409:8087:5e00:24::1e]:6060/200000001898/460000089800010214/1.m3u8
CCTV-6,http://[2409:8087:5e00:24::1e]:6060/200000001898/460000089800010214/index.m3u8
CCTV-6,http://[2409:8087:5e01:34::20]:6610/ZTE_CMS/00000001000000060000000000000379/index.m3u8?IAS
CCTV-7,http://[2409:8087:4c0a:22:1::11]:6410/170000001115/UmaiCHAN5000038BESTVSMGSMG/index.m3u8?AuthInfo=9kOOdBn7MFF%2F2bWjKgahUSpr1AVNI633ampcuzdN%2BfHYKFve4MwNzRa0jPXeHjqnBjPmzSdKDNWNHhnZSaMGCXKmdx8d%2BnYdhVK5ge22ot4
CCTV-7,http://[2409:8087:5e01:34::22]:6610/ZTE_CMS/00000001000000060000000000000380/index.m3u8?IAS
CCTV-7,http://[2409:8087:5e00:24::1e]:6060/200000001898/460000089800010215/1.m3u8
CCTV-7,http://[2409:8087:5e00:24::1e]:6060/200000001898/460000089800010215/index.m3u8
CCTV-7,http://[2409:8087:5e01:34::38]:6610/ZTE_CMS/00000001000000060000000000000380/index.m3u8?
CCTV-7,http://[2409:8087:5e01:34::20]:6610/ZTE_CMS/00000001000000060000000000000380/index.m3u8?IAS
CCTV-8,http://[2409:8087:4c0a:22:1::11]:6410/170000001115/UmaiCHAN638728970aa82/index.m3u8?AuthInfo=9kOOdBn7MFF%2F2bWjKgahUdDh4EPdDnvGlSBkYaxFdaymid9ta2tVUW0%2FdVrFqszC1EVEkAbpip1IYxn%2Ba2aA%2BVAihIiw9D8ejUsDbfU0K68
CCTV-8,http://[2409:8087:5e00:24::1e]:6060/200000001898/460000089800010216/1.m3u8
CCTV-8,http://ottrrs.hl.chinamobile.com/PLTV/88888888/224/3221226008/index.m3u8
CCTV-8,http://[2409:8087:5e00:24::1e]:6060/200000001898/460000089800010216/index.m3u8
CCTV-8,http://[2409:8087:5e01:34::20]:6610/ZTE_CMS/00000001000000060000000000000371/index.m3u8?IAS
CCTV-9,http://[2409:8087:4c0a:22:1::11]:6410/170000001115/UmaiCHAN5000039BESTVSMGSMG/index.m3u8?AuthInfo=9kOOdBn7MFF%2F2bWjKgahUSpr1AVNI633ampcuzdN%2BfHArfvJF2pWpm4RxcBNhZ7j9vEUeCQte%2BbQaOGNIUEEK%2B3RBE1BC9EUsM18gnb%2FyAA
CCTV-9,http://[2409:8087:5e01:34::20]:6610/ZTE_CMS/00000001000000060000000000000373/index.m3u8?IAS
CCTV-9,http://[2409:8087:5e00:24::1e]:6060/200000001898/460000089800010052/1.m3u8
CCTV-9,http://[2409:8087:5e00:24::1e]:6060/200000001898/460000089800010052/index.m3u8
CCTV-9,http://[2409:8087:5e01:34::38]:6610/ZTE_CMS/00000001000000060000000000000373/index.m3u8?
CCTV-10,http://[2409:8087:4c0a:22:1::11]:6410/170000001115/UmaiCHAN3949784BESTVSMGSMG/index.m3u8?AuthInfo=9kOOdBn7MFF%2F2bWjKgahUXt3TPFwzzdHCkOT9AjSv5OuXozn3alq9%2BUx7ZLG1w9aOfkLjZvYj56D3xkOAtSOIoLsdw8c1%2BCwLDg1aS4esN4
CCTV-10,http://[2409:8087:5e01:34::20]:6610/ZTE_CMS/00000001000000060000000000000375/index.m3u8?IAS
CCTV-10,http://[2409:8087:5e00:24::1e]:6060/200000001898/460000089800010203/1.m3u8
CCTV-10,http://[2409:8087:5e00:24::1e]:6060/200000001898/460000089800010203/index.m3u8
CCTV-10,http://[2409:8087:5e01:34::38]:6610/ZTE_CMS/00000001000000060000000000000375/index.m3u8?
CCTV-11,http://[2409:8087:4c0a:22:1::11]:6410/170000001115/UmaiCHAN6000053BESTVSMGSMG/index.m3u8?AuthInfo=9kOOdBn7MFF%2F2bWjKgahUTWDyIgRkFJBAHMhA2ayG0Qj2xHA4vdPGsjBbxSL3p%2FmAObVTfznR%2Fpc%2B76QYmLRMuL3Lj9iabhv8arW7kJe6%2F4
CCTV-11,http://[2409:8087:5e01:34::23]:6610/ZTE_CMS/00000001000000060000000000000497/index.m3u8?IAS
CCTV-11,http://[2409:8087:5e00:24::1e]:6060/200000001898/460000089800010092/1.m3u8
CCTV-11,http://[2409:8087:5e00:24::1e]:6060/200000001898/460000089800010092/index.m3u8
CCTV-11,http://[2409:8087:5e01:34::38]:6610/ZTE_CMS/00000001000000060000000000000497/index.m3u8?
CCTV-11,http://[2409:8087:5e01:34::20]:6610/ZTE_CMS/00000001000000060000000000000497/index.m3u8?IAS
CCTV-11,http://php.jdshipin.com:8880/TVOD/hnyd.php?id=00000001000000060000000000000497
CCTV-12,http://[2409:8087:4c0a:22:1::11]:6410/170000001115/UmaiCHAN5000040BESTVSMGSMG/index.m3u8?AuthInfo=9kOOdBn7MFF%2F2bWjKgahUd3JM2PCgDefrKOVZLNt0QMAmpLefguRLiOPXiDRWhxHg8yim2giTBA8RILsb%2B8Y5pkFUyZBE%2FkNJAbwncEegkU
CCTV-12,http://[2409:8087:5e01:34::20]:6610/ZTE_CMS/00000001000000060000000000000377/index.m3u8?IAS
CCTV-12,http://[2409:8087:5e00:24::1e]:6060/200000001898/460000089800010205/1.m3u8
CCTV-12,http://[2409:8087:5e00:24::1e]:6060/200000001898/460000089800010205/index.m3u8
CCTV-12,http://[2409:8087:5e01:34::38]:6610/ZTE_CMS/00000001000000060000000000000377/index.m3u8?
CCTV-13,http://[2409:8087:4c0a:22:1::11]:6410/170000001115/UmaiCHAN6000054BESTVSMGSMG/index.m3u8?AuthInfo=9kOOdBn7MFF%2F2bWjKgahUTWDyIgRkFJBAHMhA2ayG0SuXozn3alq9%2BUx7ZLG1w9awc14iEUxQ5VsTsr5pEBsmF56tXUfsukRUpygmTCKvAI
CCTV-13,http://[2409:8087:5e01:34::22]:6610/ZTE_CMS/00000001000000060000000000000516/index.m3u8?IAS
CCTV-13,http://[2409:8087:5e00:24::1e]:6060/200000001898/460000089800010093/1.m3u8
CCTV-13,http://[2409:8087:5e01:34::38]:6610/ZTE_CMS/00000001000000060000000000000516/index.m3u8?
CCTV-13,http://[2409:8087:5e01:34::20]:6610/ZTE_CMS/00000001000000060000000000000516/index.m3u8?IAS
CCTV-14,http://[2409:8087:4c0a:22:1::11]:6410/170000001115/UmaiCHAN3949788BESTVSMGSMG/index.m3u8?AuthInfo=9kOOdBn7MFF%2F2bWjKgahUXt3TPFwzzdHCkOT9AjSv5PYKFve4MwNzRa0jPXeHjqnp7khdLaCMP6L4QpTf84Oz6DvCG1%2BJ81QvStkxO%2FoGm8
CCTV-14,http://[2409:8087:5e01:34::23]:6610/ZTE_CMS/00000001000000060000000000000378/index.m3u8?IAS
CCTV-14,http://[2409:8087:5e00:24::1e]:6060/200000001898/460000089800010207/1.m3u8
CCTV-14,http://[2409:8087:5e00:24::1e]:6060/200000001898/460000089800010207/index.m3u8
CCTV-14,http://[2409:8087:5e01:34::38]:6610/ZTE_CMS/00000001000000060000000000000378/index.m3u8?
CCTV-14,http://[2409:8087:5e01:34::20]:6610/ZTE_CMS/00000001000000060000000000000378/index.m3u8?IAS
CCTV-14,http://ottrrs.hl.chinamobile.com/TVOD/88888888/224/3221226591/index.m3u8
CCTV-15,http://[2409:8087:4c0a:22:1::11]:6410/170000001115/UmaiCHAN6000055BESTVSMGSMG/index.m3u8?AuthInfo=9kOOdBn7MFF%2F2bWjKgahUTWDyIgRkFJBAHMhA2ayG0Tdo%2FUL80msfbhDYvoWpNl31Dy7jHvMl%2FzVUrNxhL1ek1YEGVDZ7lCg0LtKJY4Ku%2B8
CCTV-15,http://[2409:8087:5e01:34::20]:6610/ZTE_CMS/00000001000000060000000000000501/index.m3u8?IAS
CCTV-15,http://[2409:8087:5e00:24::1e]:6060/200000001898/460000089800010094/1.m3u8
CCTV-15,http://[2409:8087:5e00:24::1e]:6060/200000001898/460000089800010094/index.m3u8
CCTV-15,http://[2409:8087:5e01:34::38]:6610/ZTE_CMS/00000001000000060000000000000501/index.m3u8?
CCTV-16,http://[2409:8087:1a01:df::4077]/PLTV/88888888/224/3221225893/index.m3u8
CCTV-16,http://[2409:8087:5e00:24::1e]:6060/200000001898/460000089800010142/1.m3u8
CCTV-16,http://[2409:8087:1a01:df::7005]/ottrrs.hl.chinamobile.com/PLTV/88888888/224/3221226100/index.m3u8
CCTV-16,http://[2409:8087:5e00:24::1e]:6060/200000001898/460000089800010142/index.m3u8
CCTV-17,http://[2409:8087:4c0a:22:1::11]:6410/170000001115/UmaiCHAN638728afa13b4/index.m3u8?AuthInfo=9kOOdBn7MFF%2F2bWjKgahUdDh4EPdDnvGlSBkYaxFdaz%2FyAI9to%2FMBBt%2FivcdSfljJ1%2FqqamWUjAiBAxNssfyBlZUDSXAIMtStS86hRHFuJM
CCTV-17,http://[2409:8087:5e01:34::22]:6610/ZTE_CMS/00000001000000060000000000000494/index.m3u8?IAS
CCTV-17,http://[2409:8087:5e00:24::1e]:6060/200000001898/460000089800010210/1.m3u8
CCTV-17,http://ottrrs.hl.chinamobile.com/PLTV/88888888/224/3221225765/index.m3u8
CCTV-17,http://[2409:8087:5e00:24::1e]:6060/200000001898/460000089800010210/index.m3u8
CCTV-17,http://[2409:8087:5e01:34::38]:6610/ZTE_CMS/00000001000000060000000000000494/index.m3u8?
CCTV-17,http://[2409:8087:5e01:34::20]:6610/ZTE_CMS/00000001000000060000000000000494/index.m3u8?IAS
爱上4K,http://[2409:8087:5e01:34::23]:6610/ZTE_CMS/00000001000000060000000000000459/index.m3u8?IAS
风云足球,http://[2409:8087:4c0a:22:1::11]:6410/170000001115/UmaiCHAN638077160c04a/index.m3u8?AuthInfo=toEYVdLfxymUP2l9NZpQIxzzxEhTjOtZryLHMXreoGJz5anxUFgyS6MrkLezPQZm9JL%2Bv9RrHWJTagMmnVYzpeQ%2FU0oiypeROXP7q2riYic
风云足球,http://[2409:8087:4c0a:22:1::11]:6410/170000001115/UmaiCHAN638077160c04a/1.m3u8?m3u8_level=2
央视台球,http://[2409:8087:4c0a:22:1::11]:6410/170000001115/UmaiCHAN6380775932cff/index.m3u8?AuthInfo=toEYVdLfxymUP2l9NZpQIxzzxEhTjOtZryLHMXreoGIhhbZzYqwcgjvvRZLVRTRUXFxC%2BlDuTkdKHPnzcR1DomGVyhFGbQRmDDrX7x%2FDZL0
央视台球,http://[2409:8087:4c0a:22:1::11]:6410/170000001115/UmaiCHAN6380775932cff/1.m3u8?m3u8_level=2
兵器科技,http://[2409:8087:4c0a:22:1::11]:6410/170000001115/UmaiCHAN638077907bdcd/index.m3u8?AuthInfo=toEYVdLfxymUP2l9NZpQIxzzxEhTjOtZryLHMXreoGKB9zm%2BIxepVqZYZm7RAv244Kkb0RUYfm4%2FqM8nid95yfI6je%2Fgd5aFLyZ9USd3KbA
兵器科技,http://[2409:8087:4c0a:22:1::11]:6410/170000001115/UmaiCHAN638077907bdcd/1.m3u8?m3u8_level=2
第一剧场,http://[2409:8087:4c0a:22:1::11]:6410/170000001115/UmaiCHAN638077f5ca035/index.m3u8?AuthInfo=toEYVdLfxymUP2l9NZpQIxzzxEhTjOtZryLHMXreoGIg5Jm9ufDm6djkkrhWP0zlHbXMBq03w%2FgOHENZxE4ay%2BEXqK0XzFFWJtPAReIvdhE
第一剧场,http://[2409:8087:4c0a:22:1::11]:6410/170000001115/UmaiCHAN638077f5ca035/1.m3u8?m3u8_level=2
高尔夫网球,http://[2409:8087:4c0a:22:1::11]:6410/170000001115/UmaiCHAN63807743b61bb/index.m3u8?AuthInfo=toEYVdLfxymUP2l9NZpQIxzzxEhTjOtZryLHMXreoGLY7Qr44mlU8Mm7hAKppcofYcqtkgnrIU1veEPNSLwHTPQxqGjPgZkOj3N28h2Dcwo
世界地理,http://[2409:8087:4c0a:22:1::11]:6410/170000001115/UmaiCHAN638077a61f4f3/index.m3u8?AuthInfo=toEYVdLfxymUP2l9NZpQIxzzxEhTjOtZryLHMXreoGJ1P%2BMWIbO7dcr69BOnWr6VtCf%2FZIGsCvoR9H9LBuL%2Bb%2BgUMie3w0VElI8jl5lx%2Fxs
世界地理,http://[2409:8087:4c0a:22:1::11]:6410/170000001115/UmaiCHAN638077a61f4f3/1.m3u8?m3u8_level=2
CHC动作电影,http://[2409:8087:4c0a:22:1::11]:6410/170000001115/UmaiCHAN6380763222d00/index.m3u8?m3u8_level=2
CHC动作电影,http://[2409:8087:4c0a:22:1::11]:6410/170000001115/UmaiCHAN6380763222d00/index.m3u8?AuthInfo=9kOOdBn7MFF%2F2bWjKgahUTrwI%2B%2BngB0lPRofcD8hTNSXQZMUEnZPBI3Y%2BI8ABE4PJC%2B6OvlZZw5ubC%2FbrIdxFJJY1CcAGU%2BYDDQV9oJ%2FVqQ
CHC家庭影院,http://[2409:8087:4c0a:22:1::11]:6410/170000001115/UmaiCHAN63807601b19dd/index.m3u8?m3u8_level=2
CHC家庭影院,http://[2409:8087:4c0a:22:1::22]:6610/170000001115/UmaiCHAN63807601b19dd/index.m3u8?AuthInfo=9kOOdBn7MFF%2F2bWjKgahUTrwI%2B%2BngB0lPRofcD8hTNRxu2SqX2RKsLT0S7AyQ8XopIVrD6IJGxdajeuKy4iZqZ4tkZuiEpwSRPszF6PIvg4&IA
CHC家庭影院,http://[2409:8087:4c0a:22:1::11]:6410/170000001115/UmaiCHAN63807601b19dd/index.m3u8?AuthInfo=9kOOdBn7MFF%2F2bWjKgahUTrwI%2B%2BngB0lPRofcD8hTNRxu2SqX2RKsLT0S7AyQ8XopIVrD6IJGxdajeuKy4iZqZ4tkZuiEpwSRPszF6PIvg4
CHC高清电影,http://[2409:8087:4c0a:22:1::21]:6610/170000001115/UmaiCHAN6380764b172c9/index.m3u8?AuthInfo=9kOOdBn7MFF%2F2bWjKgahUTrwI%2B%2BngB0lPRofcD8hTNS8qWmEGeaUedzcFVVumqf9cm8lJoOcrIZueLbqOJTuoPV%2FwBk6CoHYGFV14SkLW04&
CHC高清电影,http://[2409:8087:4c0a:22:1::11]:6410/170000001115/UmaiCHAN6380764b172c9/index.m3u8?AuthInfo=9kOOdBn7MFF%2F2bWjKgahUTrwI%2B%2BngB0lPRofcD8hTNS8qWmEGeaUedzcFVVumqf9cm8lJoOcrIZueLbqOJTuoPV%2FwBk6CoHYGFV14SkLW04
溪山玥&卫视,#genre#
甘肃卫视,http://[2409:8087:5e00:24::1e]:6060/200000001898/460000089800010098/1.m3u8
甘肃卫视,http://[2409:8087:5e00:24::1e]:6060/200000001898/460000089800010098/index.m3u8
北京卫视,http://[2409:8087:4c0a:22:1::11]:6410/170000001115/UmaiCHAN181361BESTVSMGSMG/index.m3u8?AuthInfo=9kOOdBn7MFF%2F2bWjKgahUVKcU8XeU8C9ZEn2TN9C%2BRcwoDIwMxbrlyyVy9x6ZDKnfS6nBeQejvigwfjRd2x%2BU7thmluKAkd%2BIGySvIyq4AU
北京卫视,http://[2409:8087:5e01:34::38]:6610/ZTE_CMS/00000001000000060000000000000173/index.m3u8?
北京卫视,http://[2409:8087:5e01:34::20]:6610/ZTE_CMS/00000001000000060000000000000173/index.m3u8?IAS
东方卫视,http://[2409:8087:1a01:df::4025]/PLTV/88888888/224/3221225672/index.m3u8
东方卫视,http://[2409:8087:1a01:df::7005]:80/ottrrs.hl.chinamobile.com/PLTV/88888888/224/3221226345/index.m3u8
东方卫视,http://[2409:8087:4c0a:22:1::11]:6410/170000001115/UmaiCHAN111131BESTVSMGSMG/index.m3u8?AuthInfo=9kOOdBn7MFF%2F2bWjKgahUaKz9fMrAi6%2FC6MZg8Mm9JQwoDIwMxbrlyyVy9x6ZDKnJ1LnEAwl4s1JgSBXbCxhRiWmveR7x9HhnhsF9G%2Bd4f8
东方卫视,http://[2409:8087:5e00:24::1e]:6060/200000001898/460000089800010054/index.m3u8
东方卫视,http://[2409:8087:5e01:34::38]:6610/ZTE_CMS/00000001000000060000000000000182/index.m3u8?
广东卫视,http://[2409:8087:1a01:df::7005]:80/ottrrs.hl.chinamobile.com/PLTV/88888888/224/3221226248/index.m3u8
广东卫视,http://[2409:8087:5e01:34::22]:6610/ZTE_CMS/00000001000000060000000000000341/index.m3u8?IAS
广东卫视,http://[2409:8087:1a01:df::7005]/ottrrs.hl.chinamobile.com/PLTV/88888888/224/3221226248/index.m3u8
广东卫视,http://ottrrs.hl.chinamobile.com/PLTV/88888888/224/3221226248/index.m3u8
广东卫视,http://[2409:8087:4c0a:22:1::11]:6410/170000001115/UmaiCHAN181359BESTVSMGSMG/index.m3u8?AuthInfo=9kOOdBn7MFF%2F2bWjKgahUW%2B%2FF4NzOzOt3cAWjhMHEuMwoDIwMxbrlyyVy9x6ZDKn1U8f2vJUVL98LlyeZUOMSmC30dkrUFt%2FE8JGKMphXYE
广东卫视,http://[2409:8087:5e00:24::1e]:6060/200000001898/460000089800010055/index.m3u8
广东卫视,http://[2409:8087:5e01:34::38]:6610/ZTE_CMS/00000001000000060000000000000341/index.m3u8?
广东卫视,http://[2409:8087:5e01:34::20]:6610/ZTE_CMS/00000001000000060000000000000341/index.m3u8?IAS
吉林卫视,http://[2409:8087:1a01:df::7005]:80/ottrrs.hl.chinamobile.com/PLTV/88888888/224/3221226397/index.m3u8
吉林卫视,http://[2409:8087:1a01:df::7005]/ottrrs.hl.chinamobile.com/PLTV/88888888/224/3221226397/index.m3u8
吉林卫视,http://[2409:8087:5e01:34::23]:6610/ZTE_CMS/00000001000000060000000000000533/index.m3u8?IAS
吉林卫视,http://[2409:8087:1a0b:df::4020]:80/ottrrs.hl.chinamobile.com/PLTV/88888888/224/3221226397/index.m3u8
吉林卫视,http://ottrrs.hl.chinamobile.com/PLTV/88888888/224/3221226397/index.m3u8
吉林卫视,http://[2409:8087:4c0a:22:1::11]:6410/170000001115/UmaiCHAN5000046BESTVSMGSMG/index.m3u8?AuthInfo=9kOOdBn7MFF%2F2bWjKgahUd3JM2PCgDefrKOVZLNt0QOVSARKsxkWGZw7vFUuOj2QqUR6TTs3uuC0H2mr3p6fRRazyiEPmSIyh%2BRO1%2BU3q84
吉林卫视,http://[2409:8087:5e01:34::38]:6610/ZTE_CMS/00000001000000060000000000000533/index.m3u8?
东南卫视,http://[2409:8087:1a01:df::7005]:80/ottrrs.hl.chinamobile.com/PLTV/88888888/224/3221226341/index.m3u8
东南卫视,http://[2409:8087:5e01:34::23]:6610/ZTE_CMS/00000001000000060000000000000502/index.m3u8?IAS
东南卫视,http://ottrrs.hl.chinamobile.com/PLTV/88888888/224/3221226341/index.m3u8
东南卫视,http://[2409:8087:1a01:df::4077]/PLTV/88888888/224/3221225950/index.m3u8
东南卫视,http://[2409:8087:1a01:df::7005]/ottrrs.hl.chinamobile.com/PLTV/88888888/224/3221226341/index.m3u8
东南卫视,http://[2409:8087:1a01:df::4077]/ottrrs.hl.chinamobile.com/PLTV/88888888/224/3221226341/index.m3u8
东南卫视,http://[2409:8087:5e01:34::20]:6610/ZTE_CMS/00000001000000060000000000000502/index.m3u8?IAS
天津卫视,http://[2409:8087:1a01:df::7005]:80/ottrrs.hl.chinamobile.com/PLTV/88888888/224/3221226459/index.m3u8
天津卫视,http://[2409:8087:5e01:34::23]:6610/ZTE_CMS/00000001000000060000000000000249/index.m3u8?IAS
天津卫视,http://[2409:8087:1a01:df::7005]/ottrrs.hl.chinamobile.com/PLTV/88888888/224/3221226459/index.m3u8
天津卫视,http://[2409:8087:4c0a:22:1::11]:6410/170000001115/UmaiCHAN3450000BESTVSMGSMG/index.m3u8?AuthInfo=9kOOdBn7MFF%2F2bWjKgahUZnlX6d6Ukio1jy49XlNnaUAmpLefguRLiOPXiDRWhxHtqJ1Caox489JiEKddi6MNiecVT4WDzN0xwhlk8OSvQg
天津卫视,http://[2409:8087:5e00:24::1e]:6060/200000001898/460000089800010069/index.m3u8
天津卫视,http://[2409:8087:5e01:34::38]:6610/ZTE_CMS/00000001000000060000000000000249/index.m3u8?
天津卫视,http://[2409:8087:5e01:34::20]:6610/ZTE_CMS/00000001000000060000000000000249/index.m3u8?IAS
安徽卫视,http://[2409:8087:1a01:df::7005]:80/ottrrs.hl.chinamobile.com/PLTV/88888888/224/3221226391/index.m3u8
安徽卫视,http://[2409:8087:5e01:34::22]:6610/ZTE_CMS/00000001000000060000000000000368/index.m3u8?IAS
安徽卫视,http://ottrrs.hl.chinamobile.com/PLTV/88888888/224/3221226391/index.m3u8
安徽卫视,http://[2409:8087:1a01:df::7005]/ottrrs.hl.chinamobile.com/PLTV/88888888/224/3221226391/index.m3u8
安徽卫视,http://[2409:8087:4c0a:22:1::11]:6410/170000001115/UmaiCHAN3540416BESTVSMGSMG/index.m3u8?AuthInfo=9kOOdBn7MFF%2F2bWjKgahUXv1bCET6%2FGP6LFvnNC2DgGVSARKsxkWGZw7vFUuOj2Qc9XJS6ezvAUx%2FdaE2fSJr3cdTmmqJgNdIzUOCi9%2BOyg
安徽卫视,http://[2409:8087:5e00:24::1e]:6060/200000001898/460000089800010041/index.m3u8
安徽卫视,http://[2409:8087:5e01:34::38]:6610/ZTE_CMS/00000001000000060000000000000368/index.m3u8?
安徽卫视,http://[2409:8087:5e01:34::20]:6610/ZTE_CMS/00000001000000060000000000000368/index.m3u8?IAS
山东卫视,http://[2409:8087:1a01:df::7005]:80/ottrrs.hl.chinamobile.com/PLTV/88888888/224/3221226456/index.m3u8
山东卫视,http://[2409:8087:5e01:34::21]:6610/ZTE_CMS/00000001000000060000000000000364/index.m3u8?IAS
山东卫视,http://[2409:8087:4c0a:22:1::11]:6410/170000001115/UmaiCHAN911992BESTVSMGSMG/index.m3u8?AuthInfo=9kOOdBn7MFF%2F2bWjKgahUYPFYDnFP%2FDAPuH7S4egu%2BwwoDIwMxbrlyyVy9x6ZDKni2tPDnaOO8v3uGUKi1hZOhPazmZ%2B8tgH3leYQIsqfKE
山东卫视,http://[2409:8087:5e00:24::1e]:6060/200000001898/460000089800010066/index.m3u8
山东卫视,http://lives.jnnews.tv/video/s10001-SDTV/index.m3u8
山东卫视,http://[2409:8087:5e01:34::20]:6610/ZTE_CMS/00000001000000060000000000000364/index.m3u8?IAS
广西卫视,http://[2409:8087:1a01:df::7005]:80/ottrrs.hl.chinamobile.com/PLTV/88888888/224/3221226549/index.m3u8
广西卫视,http://[2409:8087:1a01:df::7005]/ottrrs.hl.chinamobile.com/PLTV/88888888/224/3221226549/index.m3u8
广西卫视,http://[2409:8087:4c0a:22:1::11]:6410/170000001115/UmaiCHAN5000045BESTVSMGSMG/index.m3u8?AuthInfo=9kOOdBn7MFF%2F2bWjKgahUd3JM2PCgDefrKOVZLNt0QPdo%2FUL80msfbhDYvoWpNl3Ui3SDbjEyrngRN3z0PFPHWA%2BXaedl3%2F3flCrB%2Fqh7fg
广西卫视,http://[2409:8087:5e00:24::1e]:6060/200000001898/460000089800010099/index.m3u8
江苏卫视,http://[2409:8087:1a01:df::7005]:80/ottrrs.hl.chinamobile.com/PLTV/88888888/224/3221226310/index.m3u8
江苏卫视,http://[2409:8087:1a01:df::7005]/ottrrs.hl.chinamobile.com/PLTV/88888888/224/3221226310/index.m3u8
江苏卫视,http://[2409:8087:4c0a:22:1::4]:6610/170000001115/UmaiCHAN111129BESTVSMGSMG/index.m3u8?AuthInfo=NUJN2wb9BN2ZpCMOWq02OFinu7ChPwzZMEr4DA515M17sMI3p4W2558kb4tCId2lGsuMahdPCa7cTmyBxd%2BPXg%3D%3D
江苏卫视,http://[2409:8087:5e01:34::38]:6610/ZTE_CMS/00000001000000060000000000000177/index.m3u8?
江苏卫视,http://[2409:8087:5e01:34::20]:6610/ZTE_CMS/00000001000000060000000000000177/index.m3u8?IAS
河北卫视,http://[2409:8087:1a01:df::7005]:80/ottrrs.hl.chinamobile.com/PLTV/88888888/224/3221226406/index.m3u8
河北卫视,http://[2409:8087:1a0b:df::4020]:80/ottrrs.hl.chinamobile.com/PLTV/88888888/224/3221226406/index.m3u8
河北卫视,http://[2409:8087:5e01:34::21]:6610/ZTE_CMS/00000001000000060000000000000487/index.m3u8?IAS
河北卫视,http://ottrrs.hl.chinamobile.com/PLTV/88888888/224/3221226406/index.m3u8
河北卫视,http://[2409:8087:1a01:df::7005]/ottrrs.hl.chinamobile.com/PLTV/88888888/224/3221226406/index.m3u8
河北卫视,http://[2409:8087:1a01:df::4077]/PLTV/88888888/224/3221225961/index.m3u8
河北卫视,http://[2409:8087:5e01:34::21]:6610/ZTE_CMS/00000001000000060000000000000487/index.m3u8?fmmv6
河北卫视,http://[2409:8087:4c0a:22:1::11]:6410/170000001115/UmaiCHAN100000002BESTVSMGSMG9/index.m3u8?AuthInfo=9kOOdBn7MFF%2F2bWjKgahUaxEcGF7BsTm3tBZ5QM10A3THYCGyx0KiW2nghgGHiPYyNBht0ohR2xRP7wFZyAPWYATALvCqK4y6nrLdX80fn4
河北卫视,http://[2409:8087:5e00:24::1e]:6060/200000001898/460000089800010101/index.m3u8
河北卫视,http://[2409:8087:5e01:34::38]:6610/ZTE_CMS/00000001000000060000000000000487/index.m3u8?
河南卫视,http://[2409:8087:1a0b:df::4020]:80/ottrrs.hl.chinamobile.com/PLTV/88888888/224/3221226480/index.m3u8
河南卫视,http://[2409:8087:1a01:df::7005]:80/ottrrs.hl.chinamobile.com/PLTV/88888888/224/3221226480/index.m3u8
河南卫视,http://[2409:8087:4c0a:22:1::11]:6410/170000001115/UmaiCHAN5000044BESTVSMGSMG/index.m3u8?AuthInfo=9kOOdBn7MFF%2F2bWjKgahUd3JM2PCgDefrKOVZLNt0QOuXozn3alq9%2BUx7ZLG1w9aOfw%2Ftj8uByLI%2F9b3T9xKHSKRmZDiwMOFotvfGaGd4Uw
浙江卫视,http://[2409:8087:1a01:df::7005]:80/ottrrs.hl.chinamobile.com/PLTV/88888888/224/3221226339/index.m3u8
浙江卫视,http://[2409:8087:1a01:df::7005]/ottrrs.hl.chinamobile.com/PLTV/88888888/224/3221226339/index.m3u8
浙江卫视,http://[2409:8087:4c0a:22:1::11]:6410/170000001115/UmaiCHAN111130BESTVSMGSMG/index.m3u8?AuthInfo=9kOOdBn7MFF%2F2bWjKgahUclW6AUI%2FSIO%2Bs%2F9KaqCfRAwoDIwMxbrlyyVy9x6ZDKnvfae09h%2Fzg38THB%2B%2FvaO%2BqCb7fDXq%2F%2BRzM2c4SN6TJM
浙江卫视,http://[2409:8087:5e00:24::1e]:6060/200000001898/460000089800010070/index.m3u8
浙江卫视,http://[2409:8087:5e01:34::20]:6610/ZTE_CMS/00000001000000060000000000000248/index.m3u8?IAS
海南卫视,http://[2409:8087:1a0b:df::4020]:80/ottrrs.hl.chinamobile.com/PLTV/88888888/224/3221226465/index.m3u8
海南卫视,http://[2409:8087:5e01:34::23]:6610/ZTE_CMS/00000001000000060000000000000262/index.m3u8?IAS
海南卫视,http://[2409:8087:1a01:df::7005]:80/ottrrs.hl.chinamobile.com/PLTV/88888888/224/3221226465/index.m3u8
海南卫视,http://[2409:8087:5e01:34::38]:6610/ZTE_CMS/00000001000000060000000000000262/index.m3u8?IAS
海南卫视,http://[2409:8087:4c0a:22:1::11]:6410/170000001115/UmaiCHAN4252684BESTVSMGSMG9/index.m3u8?AuthInfo=9kOOdBn7MFF%2F2bWjKgahUaBeOsoiQC4O7YVlhWLaUupjXkJIrEMFMF2spHJh%2FN1RLi84Ue88x97wZoubXLeSwCFBwRVp81CkC12%2Foosdnmw
海南卫视,http://[2409:8087:5e01:34::38]:6610/ZTE_CMS/00000001000000060000000000000262/index.m3u8?
海南卫视,http://[2409:8087:5e01:34::20]:6610/ZTE_CMS/00000001000000060000000000000262/index.m3u8?IAS
深圳卫视,http://[2409:8087:1a01:df::7005]:80/ottrrs.hl.chinamobile.com/PLTV/88888888/224/3221226313/index.m3u8
深圳卫视,http://[2409:8087:1a01:df::7005]/ottrrs.hl.chinamobile.com/PLTV/88888888/224/3221226313/index.m3u8
深圳卫视,http://[2409:8087:4c0a:22:1::11]:6410/170000001115/UmaiCHAN181362BESTVSMGSMG/index.m3u8?AuthInfo=9kOOdBn7MFF%2F2bWjKgahUTYjXE4%2FzHcB4DvaRB5Fv5MwoDIwMxbrlyyVy9x6ZDKneDM0LfUyK1%2BahEGNL2DZu0fEvbcgscnXPl2IbJvqKAk
深圳卫视,http://[2409:8087:5e00:24::1e]:6060/200000001898/460000089800010068/index.m3u8
深圳卫视,http://[2409:8087:5e01:34::38]:6610/ZTE_CMS/00000001000000060000000000000176/index.m3u8?
深圳卫视,http://[2409:8087:5e01:34::20]:6610/ZTE_CMS/00000001000000060000000000000176/index.m3u8?IAS
深圳卫视,http://ottrrs.hl.chinamobile.com/PLTV/88888888/224/3221226313/index.m3u8
湖北卫视,http://[2409:8087:1a01:df::7005]/ottrrs.hl.chinamobile.com/PLTV/88888888/224/3221226477/index.m3u8
湖北卫视,http://[2409:8087:1a01:df::7005]:80/ottrrs.hl.chinamobile.com/PLTV/88888888/224/3221226477/index.m3u8
湖北卫视,http://[2409:8087:5e01:34::20]:6610/ZTE_CMS/00000001000000060000000000000250/index.m3u8?IAS
湖北卫视,http://[2409:8087:4c0a:22:1::11]:6410/170000001115/UmaiCHAN911989BESTVSMGSMG/index.m3u8?AuthInfo=9kOOdBn7MFF%2F2bWjKgahUTjwoxLREP8RbFWdRUM4faswoDIwMxbrlyyVy9x6ZDKnEdPk51m%2FYpbAXpN4hljdv%2Fuo7x98HZteEPqTZvSaqAE
湖北卫视,http://[2409:8087:5e00:24::1e]:6060/200000001898/460000089800010057/index.m3u8
湖北卫视,http://[2409:8087:5e01:34::38]:6610/ZTE_CMS/00000001000000060000000000000250/index.m3u8?
湖北卫视,http://ottrrs.hl.chinamobile.com/PLTV/88888888/224/3221226477/index.m3u8
湖南卫视,http://[2409:8087:1a01:df::7005]:80/ottrrs.hl.chinamobile.com/PLTV/88888888/224/3221226307/index.m3u8
湖南卫视,http://[2409:8087:1a01:df::7005]/ottrrs.hl.chinamobile.com/PLTV/88888888/224/3221226307/index.m3u8
湖南卫视,http://[2409:8087:4c0a:22:1::11]:6410/170000001115/UmaiCHAN181358BESTVSMGSMG9/index.m3u8?AuthInfo=LeeLm7fxHHFwZahyMzl5ogiSnfzPlncDU3c0s0oCKsWsEZySe%2Bkut33UVqIiB65CfM7MDQ1hYUcQovfIFJ9Z6Q%3D%3D
湖南卫视,http://[2409:8087:5e00:24::1e]:6060/200000001898/460000089800010058/index.m3u8
湖南卫视,http://[2409:8087:5e01:34::38]:6610/ZTE_CMS/00000001000000060000000000000174/index.m3u8?
湖南卫视,http://[2409:8087:5e01:34::20]:6610/ZTE_CMS/00000001000000060000000000000174/index.m3u8?IAS
贵州卫视,http://[2409:8087:1a01:df::4035]/PLTV/88888888/224/3221225974/index.m3u8
贵州卫视,http://[2409:8087:1a01:df::7005]:80/ottrrs.hl.chinamobile.com/PLTV/88888888/224/3221226474/index.m3u8
贵州卫视,http://[2409:8087:5e01:34::23]:6610/ZTE_CMS/00000001000000060000000000000489/index.m3u8?IAS
贵州卫视,http://[2409:8087:1a01:df::4077]/PLTV/88888888/224/3221225974/index.m3u8
贵州卫视,http://[2409:8087:4c0a:22:1::11]:6410/170000001115/UmaiCHAN4252663BESTVSMGSMG9/index.m3u8?AuthInfo=HvxAnviJgPXDnk9P57ymipwrKylweon0UUP7l8%2Ft60bzXPxslYs8q1sd2Vjyy0qkPM1AiRtWIl9fFGxElNWd0Q%3D%3D
贵州卫视,http://[2409:8087:5e00:24::1e]:6060/200000001898/460000089800010100/index.m3u8
贵州卫视,http://[2409:8087:5e01:34::38]:6610/ZTE_CMS/00000001000000060000000000000489/index.m3u8?
贵州卫视,http://[2409:8087:5e01:34::20]:6610/ZTE_CMS/00000001000000060000000000000489/index.m3u8?IAS
重庆卫视,http://[2409:8087:1a01:df::7005]:80/ottrrs.hl.chinamobile.com/PLTV/88888888/224/3221226409/index.m3u8
重庆卫视,http://[2409:8087:1a01:df::7005]/ottrrs.hl.chinamobile.com/PLTV/88888888/224/3221226409/index.m3u8
重庆卫视,http://ottrrs.hl.chinamobile.com/PLTV/88888888/224/3221226409/index.m3u8
重庆卫视,http://[2409:8087:4c0a:22:1::11]:6410/170000001115/UmaiCHAN3840707BESTVSMGSMG9/index.m3u8?AuthInfo=9kOOdBn7MFF%2F2bWjKgahUexeCsKxlG2LwkJhai31bTFVx1a9Sup7dkPMGVMX2%2Byf7FdK%2F47YrMnN4FTTQ%2B1lu6KCMf7MV7FmSuEDyoLe%2Bvo
重庆卫视,http://[2409:8087:5e00:24::1e]:6060/200000001898/460000089800010053/index.m3u8
重庆卫视,http://[2409:8087:5e01:34::38]:6610/ZTE_CMS/00000001000000060000000000000523/index.m3u8?
重庆卫视,http://[2409:8087:5e01:34::20]:6610/ZTE_CMS/00000001000000060000000000000523/index.m3u8?IAS
青海卫视,http://[2409:8087:5e00:24::1e]:6060/200000001898/460000089800010111/1.m3u8
青海卫视,http://[2409:8087:5e00:24::1e]:6060/200000001898/460000089800010111/index.m3u8
黑龙江卫视,http://[2409:8087:1a01:df::7005]:80/ottrrs.hl.chinamobile.com/PLTV/88888888/224/3221226327/index.m3u8
黑龙江卫视,http://[2409:8087:1a01:df::7005]/ottrrs.hl.chinamobile.com/PLTV/88888888/224/3221226327/index.m3u8
黑龙江卫视,http://[2409:8087:5e01:34::20]:6610/ZTE_CMS/00000001000000060000000000000175/index.m3u8?IAS
黑龙江卫视,http://ottrrs.hl.chinamobile.com/PLTV/88888888/224/3221226327/index.m3u8
黑龙江卫视,http://[2409:8087:5e00:24::1e]:6060/200000001898/460000089800010056/1.m3u8
黑龙江卫视,http://[2409:8087:1a01:df::4077]/ottrrs.hl.chinamobile.com/PLTV/88888888/224/3221226327/index.m3u8
黑龙江卫视,http://[2409:8087:4c0a:22:1::11]:6410/170000001115/UmaiCHAN181356BESTVSMGSMG/index.m3u8?AuthInfo=9kOOdBn7MFF%2F2bWjKgahUXUvBVoIpV7IZ8uInlLPonswoDIwMxbrlyyVy9x6ZDKn9MTOKFsVhR5Pg7Vvr2jf7Z0qxx5spaZs3xlZNl%2FA5wE
黑龙江卫视,http://[2409:8087:5e00:24::1e]:6060/200000001898/460000089800010056/index.m3u8
黑龙江卫视,http://[2409:8087:5e01:34::38]:6610/ZTE_CMS/00000001000000060000000000000175/index.m3u8?
三沙卫视,http://[2409:8087:5e01:34::21]:6610/ZTE_CMS/08984400000000060000000000000319/index.m3u8?IAS
三沙卫视,http://[2409:8087:5e01:34::20]:6610/ZTE_CMS/08984400000000060000000000000319/index.m3u8?IAS
三沙卫视,http://[2409:8087:5e01:34::21]:6610/ZTE_CMS/08984400000000060000000000000319/index.m3u8?
三沙卫视,http://[2409:8087:5e01:34::22]:6610/ZTE_CMS/08984400000000060000000000000319/index.m3u8?IAS
三沙卫视,http://[2409:8087:5e00:24::1e]:6060/000000001000/4600001000000000117/1.m3u8
三沙卫视,http://[2409:8087:5e00:24::1f]:6060/ZTE_CMS/08984400000000060000000000000319/1.m3u8
云南卫视,http://[2409:8087:5e00:24::1e]:6060/200000001898/460000089800010119/1.m3u8
云南卫视,http://[2409:8087:5e00:24::1e]:6060/200000001898/460000089800010119/index.m3u8
溪山玥&数字,#genre#
农业致富,http://[2409:8087:1a01:df::7005]/PLTV/88888888/224/3221225552/index.m3u8
文物宝库,http://[2409:8087:4c0a:22:1::11]:6410/170000001115/UmaiCHAN638078a346161/index.m3u8?AuthInfo=toEYVdLfxymUP2l9NZpQI5%2BK6T7j%2FlRm%2BvbM9VO7bA199v9hZiIrZ%2B5X675R6%2FGDjgcqn5UaJ6D814KM9%2FvF7QwvFfeEXMAK7LltfEC%2FKQQ
求索动物,http://[2409:8087:1a01:df::7005]/PLTV/88888888/224/3221225730/index.m3u8
求索动物,http://[2409:8087:5e08:24::12]:6610/000000001000/2000000004000000009/index.m3u8?stbId=3&livemode=1&HlsProfileId=&channel-id=hnbblive&Contentid=2000000004000000009&IASHttpSessionId=OTT19019320240419154124000281
求索生活,http://[2409:8087:1a01:df::7005]/PLTV/88888888/224/3221225715/index.m3u8
求索生活,http://[2409:8087:5e08:24::12]:6610/000000001000/2000000004000000008/index.m3u8?stbId=3&livemode=1&HlsProfileId=&channel-id=hnbblive&Contentid=2000000004000000008&IASHttpSessionId=OTT19019320240419154124000281
求索科学,http://[2409:8087:1a01:df::7005]/PLTV/88888888/224/3221225728/index.m3u8
求索科学,http://[2409:8087:5e08:24::12]:6610/000000001000/2000000004000000011/index.m3u8?stbId=3&livemode=1&HlsProfileId=&channel-id=hnbblive&Contentid=2000000004000000011&IASHttpSessionId=OTT19019320240419154124000281
生活时尚,http://[2409:8087:5e08:24::12]:6610/000000001000/2000000002000000006/index.m3u8?stbId=3&livemode=1&HlsProfileId=&channel-id=hnbblive&Contentid=2000000002000000006&IASHttpSessionId=OTT19019320240419154124000281&yang-1989
黑莓动画,http://[2409:8087:1a01:df::7005]/ottrrs.hl.chinamobile.com/PLTV/88888888/224/3221225662/index.m3u8
黑莓动画,http://[2409:8087:1a0b:df::4006]:80/ottrrs.hl.chinamobile.com/PLTV/88888888/224/3221225662/index.m3u8
黑莓电影,http://[2409:8087:1a0b:df::4014]:80/ottrrs.hl.chinamobile.com/PLTV/88888888/224/3221225743/index.m3u8
黑莓电影,http://ottrrs.hl.chinamobile.com/PLTV/88888888/224/3221225743/index.m3u8
东方影视,http://[2409:8087:5e08:24::12]:6610/000000001000/2000000002000000013/index.m3u8?stbId=3&livemode=1&HlsProfileId=&channel-id=hnbblive&Contentid=2000000002000000013&IASHttpSessionId=OTT19019320240419154124000281&yang-1989
东方影视,http://[2409:8087:5e08:24::12]:6610/000000001000/2000000002000000013/index.m3u8?stbId=3&livemode=1&HlsProfileId=&channel-id=hnbblive&Contentid=2000000002000000013&IASHttpSessionId=OTT19019320240419154124000281
东方财经,http://[2409:8087:5e08:24::12]:6610/000000001000/2000000002000000090/index.m3u8?stbId=3&livemode=1&HlsProfileId=&channel-id=hnbblive&Contentid=2000000002000000090&IASHttpSessionId=OTT19019320240419154124000281&yang-1989
东方财经,http://[2409:8087:5e08:24::12]:6610/000000001000/2000000002000000090/index.m3u8?stbId=3&livemode=1&HlsProfileId=&channel-id=hnbblive&Contentid=2000000002000000090&IASHttpSessionId=OTT19019320240419154124000281
动漫秀场,http://[2409:8087:5e08:24::12]:6610/000000001000/2000000002000000009/index.m3u8?stbId=3&livemode=1&HlsProfileId=&channel-id=hnbblive&Contentid=2000000002000000009&IASHttpSessionId=OTT19019320240419154124000281&yang-1989
金鹰卡通,http://[2409:8087:4c0a:22:1::11]:6410/170000001115/UmaiCHAN6000057BESTVSMGSMG/index.m3u8?AuthInfo=9kOOdBn7MFF%2F2bWjKgahUTWDyIgRkFJBAHMhA2ayG0T0ZQXwaiVktPr6ILPKXqwOw2VoxnxHvBSRSzCCC3szSwIgrD0rUpRXeaqChwLXCf0
金鹰卡通,http://[2409:8087:4c0a:22:1::11]:6410/170000001115/UmaiCHAN6000057BESTVSMGSMG/index.m3u8?AuthInfo=9kOOdBn7MFF/2bWjKgahUTWDyIgRkFJBAHMhA2ayG0T0ZQXwaiVktPr6ILPKXqwOw2VoxnxHvBSRSzCCC3szSwIgrD0rUpRXeaqChwLXCf0
NewTV东北热剧,http://[2409:8087:1a01:df::7005]:80/ottrrs.hl.chinamobile.com/PLTV/88888888/224/3221225741/index.m3u8
NewTV中国功夫,http://[2409:8087:1a0b:df::4001]:80/ottrrs.hl.chinamobile.com/PLTV/88888888/224/3221225681/index.m3u8
NewTV军事评论,http://[2409:8087:1a0b:df::4005]:80/ottrrs.hl.chinamobile.com/PLTV/88888888/224/3221225668/index.m3u8
NewTV欢乐剧场,http://[2409:8087:1a01:df::7005]/ottrrs.hl.chinamobile.com/PLTV/88888888/224/3221225742/index.m3u8
NewTV精品体育,http://[2409:8087:1a0b:df::4004]:80/ottrrs.hl.chinamobile.com/PLTV/88888888/224/3221225674/index.m3u8
NewTV精品纪录,http://ottrrs.hl.chinamobile.com/PLTV/88888888/224/3221225672/index.m3u8
NewTV超级体育,http://[2409:8087:1a01:df::7005]/ottrrs.hl.chinamobile.com/PLTV/88888888/224/3221225715/index.m3u8
NewTV超级电影,http://[2409:8087:1a01:df::7005]:80/ottrrs.hl.chinamobile.com/PLTV/88888888/224/3221225717/index.m3u8
NewTV超级电视剧,http://[2409:8087:1a01:df::7005]/ottrrs.hl.chinamobile.com/PLTV/88888888/224/3221225716/index.m3u8
NewTV超级电视剧,http://[2409:8087:1a01:df::7005]:80/ottrrs.hl.chinamobile.com/PLTV/88888888/224/3221225716/index.m3u8
NewTV惊悚悬疑,http://[2409:8087:1a0b:df::4002]:80/ottrrs.hl.chinamobile.com/PLTV/88888888/224/3221225665/index.m3u8
NewTV精品大剧,http://[2409:8087:1a0b:df::4001]:80/ottrrs.hl.chinamobile.com/PLTV/88888888/224/3221225670/index.m3u8
NewTV精品萌宠,http://ottrrs.hl.chinamobile.com/PLTV/88888888/224/3221226505/index.m3u8
NewTV精品萌宠,http://[2409:8087:1a0b:df::400c]:80/ottrrs.hl.chinamobile.com/PLTV/88888888/224/3221226505/index.m3u8
iHOT爱院线,http://[2409:8087:5e08:24::12]:6610/000000001000/2000000004000000034/index.m3u8?stbId=3&livemode=1&HlsProfileId=&channel-id=hnbblive&Contentid=2000000004000000034&IASHttpSessionId=OTT19019320240419154124000281
iHOT爱科幻,http://[2409:8087:5e08:24::12]:6610/000000001000/2000000004000000033/index.m3u8?stbId=3&livemode=1&HlsProfileId=&channel-id=hnbblive&Contentid=2000000004000000033&IASHttpSessionId=OTT19019320240419154124000281
iHOT爱浪漫,http://[2409:8087:5e08:24::12]:6610/000000001000/2000000004000000035/index.m3u8?stbId=3&livemode=1&HlsProfileId=&channel-id=hnbblive&Contentid=2000000004000000035&IASHttpSessionId=OTT19019320240419154124000281
iHOT爱喜剧,http://[2409:8087:5e08:24::12]:6610/000000001000/2000000004000000032/index.m3u8?stbId=3&livemode=1&HlsProfileId=&channel-id=hnbblive&Contentid=2000000004000000032&IASHttpSessionId=OTT19019320240419154124000281
iHOT爱悬疑,http://[2409:8087:5e08:24::12]:6610/000000001000/2000000004000000036/index.m3u8?stbId=3&livemode=1&HlsProfileId=&channel-id=hnbblive&Contentid=2000000004000000036&IASHttpSessionId=OTT19019320240419154124000281
iHOT爱赛车,http://[2409:8087:5e08:24::12]:6610/000000001000/2000000004000000055/index.m3u8?stbId=3&livemode=1&HlsProfileId=&channel-id=hnbblive&Contentid=2000000004000000055&IASHttpSessionId=OTT19019320240419154124000281
iHOT爱体育,http://[2409:8087:5e08:24::12]:6610/000000001000/2000000004000000060/index.m3u8?stbId=3&livemode=1&HlsProfileId=&channel-id=hnbblive&Contentid=2000000004000000060&IASHttpSessionId=OTT19019320240419154124000281
iHOT爱奇谈,http://[2409:8087:5e08:24::12]:6610/000000001000/2000000004000000058/index.m3u8?stbId=3&livemode=1&HlsProfileId=&channel-id=hnbblive&Contentid=2000000004000000058&IASHttpSessionId=OTT19019320240419154124000281
iHOT爱玩具,http://[2409:8087:5e08:24::12]:6610/000000001000/2000000004000000053/index.m3u8?stbId=3&livemode=1&HlsProfileId=&channel-id=hnbblive&Contentid=2000000004000000053&IASHttpSessionId=OTT19019320240419154124000281
iHOT爱旅行,http://[2409:8087:5e08:24::12]:6610/000000001000/2000000004000000056/index.m3u8?stbId=3&livemode=1&HlsProfileId=&channel-id=hnbblive&Contentid=2000000004000000056&IASHttpSessionId=OTT19019320240419154124000281
iHOT爱幼教,http://[2409:8087:5e08:24::12]:6610/000000001000/2000000004000000049/index.m3u8?stbId=3&livemode=1&HlsProfileId=&channel-id=hnbblive&Contentid=2000000004000000049&IASHttpSessionId=OTT19019320240419154124000281
iHOT爱谍战,http://[2409:8087:5e08:24::12]:6610/000000001000/2000000004000000038/index.m3u8?stbId=3&livemode=1&HlsProfileId=&channel-id=hnbblive&Contentid=2000000004000000038&IASHttpSessionId=OTT19019320240419154124000281
iHOT爱历史,http://[2409:8087:5e08:24::12]:6610/000000001000/2000000004000000046/index.m3u8?stbId=3&livemode=1&HlsProfileId=&channel-id=hnbblive&Contentid=2000000004000000046&IASHttpSessionId=OTT19019320240419154124000281
iHOT爱科学,http://[2409:8087:5e08:24::12]:6610/000000001000/2000000004000000047/index.m3u8?stbId=3&livemode=1&HlsProfileId=&channel-id=hnbblive&Contentid=2000000004000000047&IASHttpSessionId=OTT19019320240419154124000281
iHOT爱动漫,http://[2409:8087:5e08:24::12]:6610/000000001000/2000000004000000059/index.m3u8?stbId=3&livemode=1&HlsProfileId=&channel-id=hnbblive&Contentid=2000000004000000059&IASHttpSessionId=OTT19019320240419154124000281
